{
    "timestamp": "2019-07-29T192800",
    "meta": {},
    "timings": {
        "section0": {
            "gflopss": 0.0968842838604597,
            "oi": 0.3499999999999999,
            "timings": 11.001922333333333
        },
        "section1": {
            "gflopss": 7.598977929863067,
            "oi": 5.130248242084748,
            "timings": 1879.4248849999997
        },
        "section2": {
            "gflopss": 0.12977559169340172,
            "oi": 13.9,
            "timings": 0.0008913333333333395
        },
        "section3": {
            "gflopss": 0.2665737083127859,
            "oi": 7.1875,
            "timings": 0.01812900000000002
        }
    }
}