{
    "timestamp": "2019-07-26T092927",
    "meta": {},
    "timings": {
        "section0": {
            "gflopss": 1.7977948520171323,
            "oi": 0.3499999999999999,
            "timings": 0.592901
        },
        "section1": {
            "gflopss": 133.95184451028248,
            "oi": 5.130248242084748,
            "timings": 106.6140896666666
        },
        "section2": {
            "gflopss": 0.027161723552198064,
            "oi": 13.9,
            "timings": 0.004259333333333326
        },
        "section3": {
            "gflopss": 1.0511763624584056,
            "oi": 7.1875,
            "timings": 0.004607333333333336
        }
    }
}