{
    "timestamp": "2019-07-15T160440",
    "meta": {},
    "timings": {
        "section0": {
            "gflopss": 121.65660386645173,
            "oi": 4.034770305462986,
            "timings": 27.281635666666663
        },
        "section1": {
            "gflopss": 0.025473193662371604,
            "oi": 8.6875,
            "timings": 0.0018046666666666669
        },
        "section2": {
            "gflopss": 1.0950969589092039,
            "oi": 8.916666666666668,
            "timings": 0.01646066666666665
        }
    }
}