{
    "timestamp": "2019-07-15T160322",
    "meta": {},
    "timings": {
        "section0": {
            "gflopss": 150.8165046672381,
            "oi": 3.228318395517731,
            "timings": 17.408362666666672
        },
        "section1": {
            "gflopss": 0.025901090238907173,
            "oi": 8.6875,
            "timings": 0.001766333333333335
        },
        "section2": {
            "gflopss": 1.1018875877941032,
            "oi": 8.916666666666668,
            "timings": 0.016357333333333304
        }
    }
}