{
    "timestamp": "2019-07-15T180505",
    "meta": {},
    "timings": {
        "section0": {
            "gflopss": 139.08989487686674,
            "oi": 3.8541089485019575,
            "timings": 22.793720000000004
        },
        "section1": {
            "gflopss": 0.025723304243887784,
            "oi": 8.6875,
            "timings": 0.001783
        },
        "section2": {
            "gflopss": 1.0888790616547115,
            "oi": 8.916666666666668,
            "timings": 0.01655433333333332
        }
    }
}