{
    "timestamp": "2019-07-28T123216",
    "meta": {},
    "timings": {
        "section0": {
            "gflopss": 0.14856074097576386,
            "oi": 0.3499999999999999,
            "timings": 7.174933666666667
        },
        "section1": {
            "gflopss": 14.61579219093879,
            "oi": 5.130248242084748,
            "timings": 977.1334896666668
        },
        "section2": {
            "gflopss": 0.05996045465806427,
            "oi": 13.9,
            "timings": 0.001956333333333338
        },
        "section3": {
            "gflopss": 0.48796195905895773,
            "oi": 7.1875,
            "timings": 0.009904333333333301
        }
    }
}