{
    "timestamp": "2019-07-26T022342",
    "meta": {},
    "timings": {
        "section0": {
            "gflopss": 1.7641749123033765,
            "oi": 0.3499999999999999,
            "timings": 0.6041993333333333
        },
        "section1": {
            "gflopss": 232.63874136477398,
            "oi": 5.130248242084748,
            "timings": 61.387854
        },
        "section2": {
            "gflopss": 0.054584214004535975,
            "oi": 13.9,
            "timings": 0.002119333333333331
        },
        "section3": {
            "gflopss": 1.6760400015871595,
            "oi": 7.1875,
            "timings": 0.002882999999999995
        }
    }
}