{
    "timestamp": "2019-07-28T194607",
    "meta": {},
    "timings": {
        "section0": {
            "gflopss": 18.485307860275565,
            "oi": 2.1562743978770578,
            "timings": 93.5083013333333
        },
        "section1": {
            "gflopss": 0.1471288185311783,
            "oi": 8.6875,
            "timings": 0.00031133333333333425
        },
        "section2": {
            "gflopss": 0.4845658453832173,
            "oi": 8.916666666666668,
            "timings": 0.03708333333333335
        }
    }
}