{
    "timestamp": "2019-07-25T223448",
    "meta": {},
    "timings": {
        "section0": {
            "gflopss": 0.36612558555137703,
            "oi": 0.3499999999999999,
            "timings": 2.9113326666666666
        },
        "section1": {
            "gflopss": 57.97585142392615,
            "oi": 5.130248242084748,
            "timings": 246.33266133333325
        },
        "section2": {
            "gflopss": 0.07888796279512311,
            "oi": 13.9,
            "timings": 0.0014660000000000014
        },
        "section3": {
            "gflopss": 0.5803221394430139,
            "oi": 7.1875,
            "timings": 0.008327666666666659
        }
    }
}