{
    "timestamp": "2019-07-28T234622",
    "meta": {},
    "timings": {
        "section0": {
            "gflopss": 0.15995620393415447,
            "oi": 0.3499999999999999,
            "timings": 6.663785
        },
        "section1": {
            "gflopss": 24.923859257240508,
            "oi": 5.130248242084748,
            "timings": 572.9954203333331
        },
        "section2": {
            "gflopss": 0.1887228592977943,
            "oi": 13.9,
            "timings": 0.0006130000000000041
        },
        "section3": {
            "gflopss": 0.31378256038233904,
            "oi": 7.1875,
            "timings": 0.015399000000000005
        }
    }
}