{
    "timestamp": "2019-07-25T191818",
    "meta": {},
    "timings": {
        "section0": {
            "gflopss": 117.7332545273178,
            "oi": 2.1562743978770578,
            "timings": 14.681754333333336
        },
        "section1": {
            "gflopss": 0.02530328797627046,
            "oi": 8.6875,
            "timings": 0.0018029999999999984
        },
        "section2": {
            "gflopss": 3.0131066296217575,
            "oi": 8.916666666666668,
            "timings": 0.005963666666666666
        }
    }
}