{
    "timestamp": "2019-07-26T034858",
    "meta": {},
    "timings": {
        "section0": {
            "gflopss": 0.3173156145280213,
            "oi": 0.3499999999999999,
            "timings": 3.3591583333333332
        },
        "section1": {
            "gflopss": 51.51998853760815,
            "oi": 5.130248242084748,
            "timings": 277.2113720000001
        },
        "section2": {
            "gflopss": 0.0710950879116793,
            "oi": 13.9,
            "timings": 0.0016270000000000076
        },
        "section3": {
            "gflopss": 0.5710586273787542,
            "oi": 7.1875,
            "timings": 0.008461999999999999
        }
    }
}