{
    "timestamp": "2019-07-21T062118",
    "meta": {},
    "timings": {
        "section0": {
            "gflopss": 126.264980241829,
            "oi": 2.1562743978770578,
            "timings": 13.689714666666667
        },
        "section1": {
            "gflopss": 0.028537877257787114,
            "oi": 8.6875,
            "timings": 0.001597666666666671
        },
        "section2": {
            "gflopss": 3.2991732785908194,
            "oi": 8.916666666666668,
            "timings": 0.00544666666666667
        }
    }
}