{
    "timestamp": "2019-07-27T093504",
    "meta": {},
    "timings": {
        "section0": {
            "gflopss": 0.5757422266420208,
            "oi": 0.3499999999999999,
            "timings": 1.8513726666666666
        },
        "section1": {
            "gflopss": 53.87093909850072,
            "oi": 5.130248242084748,
            "timings": 265.10098466666665
        },
        "section2": {
            "gflopss": 0.0476360428029981,
            "oi": 12.550000000000002,
            "timings": 0.002193333333333327
        },
        "section3": {
            "gflopss": 1.3476798125860008,
            "oi": 7.1875,
            "timings": 0.0035853333333333583
        }
    }
}